{
  "result": [
    {
      "id": 1,
      "videoTitle": "Big Buck Bunny",
      "videoSubtitle": "Kindness is a balm",
      "videoURL": "http://clips.vorwaerts-gmbh.de/VfE_html5.mp4",
      "Comments": [
        {
          "title": "John",
          "subtitle": "Good manners are the ultimate form of courtesy and consideration of others.",
          "image": "1"
        },
        {
          "title": "Juliya",
          "subtitle": "When You’re Not Afraid To Be Yourself Is When You’re Most Incredible.",
          "image": "2"
        },
        {
          "title": "Zain",
          "subtitle": "You’re A Candle In The Darkness.",
          "image": "3"
        },
        {
          "title": "Mahesh",
          "subtitle": "If You Were A Box Of Crayons, You’d Be The Giant Name-Brand One With The Built-In Sharpener",
          "image": "4"
        }
      ]
    },
    {
      "id": 2,
      "videoTitle": "Joy Riders",
      "videoSubtitle": "Actions Speak",
      "videoURL": "http://commondatastorage.googleapis.com/gtv-videos-bucket/sample/ForBiggerJoyrides.mp4",
      "Comments": [
        {
          "title": "Jill",
          "subtitle": "Your Kindness Is A Balm To All Who Encounter It.",
          "image": "2"
        },
        {
          "title": "Jack",
          "subtitle": "You’re Even More Beautiful On The Inside Than You Are On The Outside.",
          "image": "1"
        },
        {
          "title": "Tuna",
          "subtitle": "You’re Really Something Special.",
          "image": "3"
        },
        {
          "title": "Munna",
          "subtitle": "You’re More Fun Than A Ball Pit Filled With Candy.",
          "image": "4"
        }
      ]
    },
    {
      "id": 3,
      "videoTitle": "COVID-19",
      "videoSubtitle": "Stay Home",
      "videoURL": "http://commondatastorage.googleapis.com/gtv-videos-bucket/sample/ForBiggerBlazes.mp4",
      "Comments": [
        {
          "title": "Harish",
          "subtitle": "You’re A Candle In The Darkness.",
          "image": "1"
        },
        {
          "title": "Rajesh",
          "subtitle": "Actions Speak Louder Than Words, And Yours Tell An Incredible Story.",
          "image": "2"
        },
        {
          "title": "Trupti",
          "subtitle": "Your Kindness Is A Balm To All Who Encounter It.",
          "image": "3"
        },
        {
          "title": "Rakesh",
          "subtitle": "In High School, I Bet You Were Voted “Most Likely To Keep Being Awesome.”",
          "image": "4"
        }
      ]
    },
    {
      "id": 4,
      "videoTitle": "Fun Unlimited",
      "videoSubtitle": "Something Special",
      "videoURL": "http://commondatastorage.googleapis.com/gtv-videos-bucket/sample/ForBiggerFun.mp4",
      "Comments": [
        {
          "title": "Danny",
          "subtitle": "You’re Really Something Special.",
          "image": "2"
        },
        {
          "title": "Happy",
          "subtitle": "You’re More Fun Than A Ball Pit Filled With Candy.",
          "image": "1"
        },
        {
          "title": "Jwell",
          "subtitle": "You Always Know How To Find That Silver Lining.",
          "image": "3"
        },
        {
          "title": "Funny",
          "subtitle": "You’re More Fun Than Bubble Wrap.",
          "image": "4"
        }
      ]
    }
  ]
}
